SNP	gene	beta	t-stat	p-value	FDR	class
						
						
						
						
17:7312217_T>C	EIF5A-ENSG00000132507	0.483030252828343	3.46316783658426	0.000572874026922346	1	cis
						
						
						
						
						
						
						
						
2:237324168_T>A	COL6A3-ENSG00000163359	-0.456953112362701	-3.16942036735091	0.00160722036629795	1	cis
						
						
1:183107885_A>G	LAMC1-ENSG00000135862	3.83141003083111	3.11628630754687	0.00192124318892038	1	cis
						
						
						
						
						
2:88609194_A>G	MBOAT2-ENSG00000143797	-10.8106526746842	-2.88702402843291	0.00403271149613846	1	cis
						
						
16:72112671_T>C	FAM173A-ENSG00000103254	-1.26358122401925	-2.84209252061669	0.00463815754523394	1	cis
5:168505512_A>C	RARS-ENSG00000113643	-2.36495577853573	-2.82460186277216	0.00489535395996853	1	cis
1:214439157_C>A	PTPN14-ENSG00000152104	2.8377564475161	2.80544732372992	0.00519180037417213	1	cis
						
						
						
1:183125913_G>A	LAMC1-ENSG00000135862	-1.77242519546355	-2.6423151580942	0.00845453339899515	1	cis
						
						
6:18264427_G>A	DEK-ENSG00000124795	0.735705219836193	2.615943053319	0.00912786495833592	1	cis
						
