SNP	gene	beta	t-stat	p-value	FDR	class
17:7312217_T>C	EIF5A-ENSG00000132507	1.53507219376918	8.61696954809245	5.67103226070441e-17	2.29310883201907e-10	cis
12:6538287_G>T	GAPDH-ENSG00000111640	1.91097673754061	4.37901113104899	1.39866244212749e-05	0.367244027351201	cis
